"","months","point.est","CI.l","CI.u","CIs"
"1","March","0.0220921808851142","0.0208093031935294","0.0238064197437314","[2.08,2.38]"
"2","April","0.0769817048477815","0.0745823380816671","0.0792823975314137","[7.46,7.93]"
"3","May","0.486678124973863","0.482456785255248","0.48893374297587","[48.25,48.89]"
"4","June","0.592844450469677","0.580972013051634","0.602375457457034","[58.1,60.24]"
"5","July","0.592844450469677","0.580972013051634","0.602375457457034","[58.1,60.24]"
"6","August","0.592844450469677","0.580972013051634","0.602375457457034","[58.1,60.24]"
"7","September","0.636172404351403","0.615615722527798","0.654284857458483","[61.56,65.43]"
"8","October","0.659799361754357","0.633201696286833","0.684994659044803","[63.32,68.5]"
